processor/testbenchfinal.vcd
$date
	Sun Oct 23 02:47:53 2022
$end
$version
	Icarus Verilog
$end
$timescale
	1s
$end
$scope module finalTestBench $end
$var wire 1 ! rst $end
$var reg 1 " clk $end
$scope module topLevel $end
$var wire 1 " clk $end
$var wire 1 # readEnable $end
$var wire 1 ! rst $end
$var wire 1 $ writeEnable $end
$var wire 5 % writeRegW [4:0] $end
$var wire 5 & writeRegM [4:0] $end
$var wire 5 ' writeRegE [4:0] $end
$var wire 32 ( writeDataM [31:0] $end
$var wire 32 ) writeDataE [31:0] $end
$var wire 32 * valueOutput2R [31:0] $end
$var wire 32 + valueOutput1R [31:0] $end
$var wire 32 , signImmE [31:0] $end
$var wire 32 - signImmD [31:0] $end
$var wire 32 . resultW [31:0] $end
$var wire 1 / regWriteW $end
$var wire 1 0 regWriteM $end
$var wire 1 1 regWriteE $end
$var wire 1 2 regWriteD $end
$var wire 1 3 regDstE $end
$var wire 1 4 regDstD $end
$var wire 32 5 readDataW [31:0] $end
$var wire 32 6 readDataM [31:0] $end
$var wire 1 7 memWriteM $end
$var wire 1 8 memWriteE $end
$var wire 1 9 memWriteD $end
$var wire 1 : memToRegW $end
$var wire 1 ; memToRegM $end
$var wire 1 < memToRegE $end
$var wire 1 = memToRegD $end
$var wire 32 > instructionD [31:0] $end
$var wire 32 ? instruction [31:0] $end
$var wire 5 @ index2 [4:0] $end
$var wire 5 A index1 [4:0] $end
$var wire 1 B hazardDetected $end
$var wire 1 C flag2 $end
$var wire 1 D flag1 $end
$var wire 1 E flag $end
$var wire 1 F equalD $end
$var wire 32 G data22 [31:0] $end
$var wire 32 H data2 [31:0] $end
$var wire 32 I data11 [31:0] $end
$var wire 32 J data1 [31:0] $end
$var wire 1 K branchD $end
$var wire 32 L address [31:0] $end
$var wire 1 M active $end
$var wire 32 N SrcBE [31:0] $end
$var wire 32 O SrcAE [31:0] $end
$var wire 5 P RtE [4:0] $end
$var wire 5 Q RtD [4:0] $end
$var wire 5 R RsE [4:0] $end
$var wire 5 S RsD [4:0] $end
$var wire 5 T RdE [4:0] $end
$var wire 5 U RdD [4:0] $end
$var wire 32 V PCbranchD [31:0] $end
$var wire 1 W PCSrcD $end
$var wire 32 X PCReg [31:0] $end
$var wire 32 Y PC [31:0] $end
$var wire 1 Z BNEType $end
$var wire 32 [ AluOutE [31:0] $end
$var wire 1 \ ALUSrcE $end
$var wire 1 ] ALUSrcD $end
$var wire 32 ^ ALUOutW [31:0] $end
$var wire 32 _ ALUOutM [31:0] $end
$var wire 2 ` ALUOpE [1:0] $end
$var wire 2 a ALUOp [1:0] $end
$var wire 4 b ALUControlE [3:0] $end
$var wire 4 c ALUControlD [3:0] $end
$scope module ALU $end
$var wire 32 d input2 [31:0] $end
$var wire 32 e input1 [31:0] $end
$var wire 4 f ex_cmd [3:0] $end
$var wire 1 K branchD $end
$var wire 2 g ALUOp [1:0] $end
$var reg 32 h alu_out [31:0] $end
$var reg 1 i branchPresent $end
$var reg 1 E flag $end
$upscope $end
$scope module IDtoExe_top $end
$var wire 1 " clk $end
$var wire 32 j signImmD [31:0] $end
$var wire 1 2 regWriteD $end
$var wire 1 4 regDstD $end
$var wire 1 9 memWriteD $end
$var wire 1 = memToRegD $end
$var wire 1 B hazardDetected $end
$var wire 32 k data2 [31:0] $end
$var wire 32 l data1 [31:0] $end
$var wire 5 m RtD [4:0] $end
$var wire 5 n RsD [4:0] $end
$var wire 5 o RdD [4:0] $end
$var wire 1 ] ALUSrcD $end
$var wire 2 p ALUOp [1:0] $end
$var wire 4 q ALUControlD [3:0] $end
$var reg 4 r ALUControlE [3:0] $end
$var reg 2 s ALUOpE [1:0] $end
$var reg 1 \ ALUSrcE $end
$var reg 5 t RdE [4:0] $end
$var reg 5 u RsE [4:0] $end
$var reg 5 v RtE [4:0] $end
$var reg 32 w data11 [31:0] $end
$var reg 32 x data22 [31:0] $end
$var reg 1 < memToRegE $end
$var reg 1 8 memWriteE $end
$var reg 1 3 regDstE $end
$var reg 1 1 regWriteE $end
$var reg 32 y signImmE [31:0] $end
$upscope $end
$scope module IFtoIDReg_top $end
$var wire 1 " clk $end
$var wire 1 ! reset $end
$var wire 32 z outPC [31:0] $end
$var wire 32 { instruction [31:0] $end
$var reg 32 | PCReg [31:0] $end
$var reg 32 } instructionD [31:0] $end
$upscope $end
$scope module cu $end
$var wire 1 " clk $end
$var wire 32 ~ instruction [31:0] $end
$var reg 4 !" ALUControlD [3:0] $end
$var reg 2 "" ALUOp [1:0] $end
$var reg 1 ] ALUSrcD $end
$var reg 1 Z BNEType $end
$var reg 1 K branchD $end
$var reg 1 = memToRegD $end
$var reg 1 9 memWriteD $end
$var reg 1 4 regDstD $end
$var reg 1 2 regWriteD $end
$upscope $end
$scope module dataMem $end
$var wire 1 " clk $end
$var wire 32 #" outputMem [31:0] $end
$var wire 1 7 rw $end
$var wire 32 $" inputMem [31:0] $end
$var wire 32 %" indexData [31:0] $end
$var wire 1 M active $end
$var reg 32 &" outputMemReg [31:0] $end
$var integer 32 '" i [31:0] $end
$upscope $end
$scope module exeToMemReg_top $end
$var wire 32 (" ALUOut [31:0] $end
$var wire 1 " clk $end
$var wire 1 < memToRegE $end
$var wire 1 8 memWriteE $end
$var wire 1 1 regWriteE $end
$var wire 5 )" writeRegE [4:0] $end
$var wire 32 *" writeDataE [31:0] $end
$var reg 32 +" ALUOutM [31:0] $end
$var reg 1 ; memToRegM $end
$var reg 1 7 memWriteM $end
$var reg 1 0 regWriteM $end
$var reg 32 ," writeDataM [31:0] $end
$var reg 5 -" writeRegM [4:0] $end
$upscope $end
$scope module instructionDecode_p $end
$var wire 4 ." ALUControlD [3:0] $end
$var wire 2 /" ALUOp [1:0] $end
$var wire 1 ] ALUSrcD $end
$var wire 1 Z BNEType $end
$var wire 32 0" PCReg [31:0] $end
$var wire 1 K branchD $end
$var wire 1 " clk $end
$var wire 1 E flagALU $end
$var wire 32 1" instruction [31:0] $end
$var wire 32 2" valueInput [31:0] $end
$var wire 32 3" valueOutput2 [31:0] $end
$var wire 32 4" valueOutput1 [31:0] $end
$var wire 1 C flag2 $end
$var wire 1 D flag1 $end
$var reg 1 W PCSrcD $end
$var reg 32 5" PCbranchD [31:0] $end
$var reg 5 6" RdD [4:0] $end
$var reg 5 7" RsD [4:0] $end
$var reg 5 8" RtD [4:0] $end
$var reg 32 9" data1 [31:0] $end
$var reg 32 :" data2 [31:0] $end
$var reg 32 ;" data2_temp [31:0] $end
$var reg 1 F equalD $end
$var reg 1 B hazardDetected $end
$var reg 5 <" index1 [4:0] $end
$var reg 5 =" index2 [4:0] $end
$var reg 1 >" notEqualD $end
$var reg 32 ?" signImmD [31:0] $end
$upscope $end
$scope module instructionExecution_top $end
$var wire 4 @" ALUControlE [3:0] $end
$var wire 2 A" ALUOpE [1:0] $end
$var wire 1 \ ALUSrcE $end
$var wire 32 B" AluOutE [31:0] $end
$var wire 5 C" RdE [4:0] $end
$var wire 5 D" RsE [4:0] $end
$var wire 5 E" RtE [4:0] $end
$var wire 1 " clk $end
$var wire 1 3 regDstE $end
$var wire 32 F" signImmE [31:0] $end
$var wire 32 G" value1 [31:0] $end
$var wire 32 H" value2 [31:0] $end
$var reg 32 I" SrcAE [31:0] $end
$var reg 32 J" SrcBE [31:0] $end
$var reg 32 K" writeDataE [31:0] $end
$var reg 5 L" writeRegE [4:0] $end
$upscope $end
$scope module instructionFetch_top $end
$var wire 1 W PCSrcD $end
$var wire 32 M" PCbranchD [31:0] $end
$var wire 1 " clk $end
$var wire 1 B hazardDetected $end
$var wire 32 N" instruction [31:0] $end
$var wire 32 O" PC [31:0] $end
$var reg 32 P" PCReg [31:0] $end
$var reg 32 Q" newPCreg [31:0] $end
$upscope $end
$scope module instructionMem_top $end
$var wire 32 R" PC [31:0] $end
$var wire 1 S" rst $end
$var wire 32 T" instruction [31:0] $end
$upscope $end
$scope module memToWBReg_top $end
$var wire 32 U" ALUOut [31:0] $end
$var wire 1 " clk $end
$var wire 1 ; memToRegM $end
$var wire 32 V" readDataM [31:0] $end
$var wire 1 0 regWriteM $end
$var wire 5 W" writeRegM [4:0] $end
$var reg 32 X" ALUOutW [31:0] $end
$var reg 1 : memToRegW $end
$var reg 32 Y" readDataW [31:0] $end
$var reg 1 / regWriteW $end
$var reg 5 Z" writeRegW [4:0] $end
$upscope $end
$scope module memory_top $end
$var wire 32 [" ALUOutM [31:0] $end
$var wire 32 \" address [31:0] $end
$var wire 1 " clk $end
$var wire 1 7 memWriteM $end
$var reg 1 M active $end
$var reg 32 ]" address_reg [31:0] $end
$upscope $end
$scope module regFile $end
$var wire 5 ^" RdD [4:0] $end
$var wire 5 _" RtD [4:0] $end
$var wire 1 " clk $end
$var wire 5 `" index1 [4:0] $end
$var wire 5 a" index2 [4:0] $end
$var wire 5 b" indexWB [4:0] $end
$var wire 1 # readEnable $end
$var wire 1 4 regDstD $end
$var wire 1 2 regWriteD $end
$var wire 1 / regWriteW $end
$var wire 1 $ writeEnable $end
$var wire 32 c" valueInput [31:0] $end
$var reg 1 D flagOutput1 $end
$var reg 1 C flagOutput2 $end
$var reg 32 d" valueOutput1 [31:0] $end
$var reg 32 e" valueOutput2 [31:0] $end
$var integer 32 f" i [31:0] $end
$upscope $end
$scope module writeBack_top $end
$var wire 32 g" ALUOutW [31:0] $end
$var wire 1 " clk $end
$var wire 1 : memToRegW $end
$var wire 32 h" readDataW [31:0] $end
$var wire 1 / regWriteW $end
$var wire 5 i" writeRegW [4:0] $end
$var reg 32 j" resultW [31:0] $end
$upscope $end
$upscope $end
$upscope $end
$enddefinitions $end
#0
$dumpvars
bx j"
bz i"
bx h"
bx g"
b100000 f"
bx e"
bx d"
bx c"
bx b"
bx a"
bx `"
bx _"
bx ^"
bx ]"
bx \"
bx ["
bx Z"
bx Y"
bx X"
bx W"
bx V"
bx U"
b100100000000010000000000000010 T"
zS"
b0 R"
b0 Q"
b0 P"
b0 O"
b100100000000010000000000000010 N"
bx M"
bx L"
bx K"
bx J"
bx I"
bx H"
bx G"
bx F"
bx E"
bx D"
bx C"
bx B"
bx A"
bx @"
bx ?"
x>"
bx ="
bx <"
bx ;"
bx :"
bx 9"
bx 8"
bx 7"
bx 6"
bx 5"
bx 4"
bx 3"
bz 2"
bx 1"
bx 0"
bz /"
bz ."
bx -"
bx ,"
bx +"
bx *"
bx )"
bx ("
b1000000000 '"
bx &"
bx %"
bx $"
bx #"
bx ""
bx !"
bx ~
bx }
bx |
b100100000000010000000000000010 {
b0 z
bx y
bx x
bx w
bx v
bx u
bx t
bx s
bx r
bx q
bx p
bx o
bx n
bx m
bx l
bx k
bx j
xi
bx h
bx g
bx f
bx e
bx d
bx c
bx b
bx a
bx `
bx _
bx ^
x]
x\
bx [
xZ
b0 Y
bx X
xW
bx V
bx U
bx T
bx S
bx R
bx Q
bx P
bx O
bx N
1M
bx L
xK
bx J
bx I
bx H
bx G
xF
0E
xD
xC
0B
bx A
bx @
b100100000000010000000000000010 ?
bx >
x=
x<
x;
x:
x9
x8
x7
bx 6
bx 5
x4
x3
x2
x1
x0
x/
bx .
bx -
bx ,
bx +
bx *
bx )
bx (
bx '
bx &
bx %
z$
z#
1"
0!
$end
#50
b0 H
b0 k
b0 :"
b0 J
b0 l
b0 9"
1C
1D
b0 *
b0 3"
b0 e"
b0 +
b0 4"
b0 d"
0K
04
1]
09
0=
b10 c
b10 q
b10 !"
12
0Z
b10 a
b10 p
b10 ""
b1 @
b1 ="
b1 a"
b0 A
b0 <"
b0 `"
b100 X
b100 |
b100 0"
b100100000000010000000000000010 >
b100100000000010000000000000010 }
b100100000000010000000000000010 ~
b100100000000010000000000000010 1"
0"
#100
0C
b11111111111111111111111111111000 V
b11111111111111111111111111111000 5"
b11111111111111111111111111111000 M"
0W
0>"
1F
b0 U
b0 o
b0 6"
b0 ^"
b1 Q
b1 m
b1 8"
b1 _"
b0 S
b0 n
b0 7"
b10 H
b10 k
b10 :"
b10 -
b10 j
b10 ?"
1"
#150
b10 `
b10 g
b10 s
b10 A"
b10 ,
b10 y
b10 F"
b10 G
b10 x
b10 H"
b0 I
b0 w
b0 G"
b0 T
b0 t
b0 C"
b1 P
b1 v
b1 E"
b0 R
b0 u
b0 D"
03
1\
b10 b
b10 f
b10 r
b10 @"
08
0<
11
0"
#200
b10 [
b10 h
b10 ("
b10 B"
b1 '
b1 )"
b1 L"
b10 N
b10 d
b10 J"
b10 )
b10 *"
b10 K"
b0 O
b0 e
b0 I"
b100 P"
1"
#248
b100100000000100000000000000001 ?
b100100000000100000000000000001 {
b100100000000100000000000000001 N"
b100100000000100000000000000001 T"
b100 Y
b100 z
b100 O"
b100 Q"
b100 R"
#250
1C
b0 H
b0 k
b0 :"
b10 @
b10 ="
b10 a"
b1000 X
b1000 |
b1000 0"
b100100000000100000000000000001 >
b100100000000100000000000000001 }
b100100000000100000000000000001 ~
b100100000000100000000000000001 1"
b10 (
b10 $"
b10 ,"
b10 _
b10 +"
b10 U"
b10 ["
b1 &
b1 -"
b1 W"
07
0;
10
0"
#300
0C
b0 6
b0 #"
b0 V"
b0 &"
b0 L
b0 %"
b0 \"
b0 ]"
b0 V
b0 5"
b0 M"
b1000 P"
b10 Q
b10 m
b10 8"
b10 _"
b1 H
b1 k
b1 :"
b1 -
b1 j
b1 ?"
1"
#348
b100100011000110000000000000001 ?
b100100011000110000000000000001 {
b100100011000110000000000000001 N"
b100100011000110000000000000001 T"
b1000 Y
b1000 z
b1000 O"
b1000 Q"
b1000 R"
#350
1C
b0 H
b0 k
b0 :"
b11 @
b11 ="
b11 a"
b11 A
b11 <"
b11 `"
b1100 X
b1100 |
b1100 0"
b100100011000110000000000000001 >
b100100011000110000000000000001 }
b100100011000110000000000000001 ~
b100100011000110000000000000001 1"
b10 ^
b10 X"
b10 g"
b0 5
b0 Y"
b0 h"
b1 %
b1 Z"
b1 b"
0:
1/
b1 ,
b1 y
b1 F"
b1 G
b1 x
b1 H"
b10 P
b10 v
b10 E"
0"
#400
0C
0D
b1 [
b1 h
b1 ("
b1 B"
b10 .
b10 c"
b10 j"
b100 V
b100 5"
b100 M"
b10 '
b10 )"
b10 L"
b1 N
b1 d
b1 J"
b1 )
b1 *"
b1 K"
b1100 P"
b11 Q
b11 m
b11 8"
b11 _"
b11 S
b11 n
b11 7"
b1 H
b1 k
b1 :"
1"
#448
b100100000001000000000000000001 ?
b100100000001000000000000000001 {
b100100000001000000000000000001 N"
b100100000001000000000000000001 T"
b1100 Y
b1100 z
b1100 O"
b1100 Q"
b1100 R"
#450
1C
1D
b0 H
b0 k
b0 :"
b100 @
b100 ="
b100 a"
b0 A
b0 <"
b0 `"
b10000 X
b10000 |
b10000 0"
b100100000001000000000000000001 >
b100100000001000000000000000001 }
b100100000001000000000000000001 ~
b100100000001000000000000000001 1"
b11 P
b11 v
b11 E"
b11 R
b11 u
b11 D"
b1 (
b1 $"
b1 ,"
b1 _
b1 +"
b1 U"
b1 ["
b10 &
b10 -"
b10 W"
0"
#500
0C
b11 '
b11 )"
b11 L"
b1000 V
b1000 5"
b1000 M"
b10000 P"
b100 Q
b100 m
b100 8"
b100 _"
b0 S
b0 n
b0 7"
b1 H
b1 k
b1 :"
1"
#548
b100100000001010000000000000001 ?
b100100000001010000000000000001 {
b100100000001010000000000000001 N"
b100100000001010000000000000001 T"
b10000 Y
b10000 z
b10000 O"
b10000 Q"
b10000 R"
#550
1C
b0 H
b0 k
b0 :"
b101 @
b101 ="
b101 a"
b10100 X
b10100 |
b10100 0"
b100100000001010000000000000001 >
b100100000001010000000000000001 }
b100100000001010000000000000001 ~
b100100000001010000000000000001 1"
b1 ^
b1 X"
b1 g"
b10 %
b10 Z"
b10 b"
b11 &
b11 -"
b11 W"
b100 P
b100 v
b100 E"
b0 R
b0 u
b0 D"
0"
#600
0C
b1 .
b1 c"
b1 j"
b1100 V
b1100 5"
b1100 M"
b100 '
b100 )"
b100 L"
b10100 P"
b101 Q
b101 m
b101 8"
b101 _"
b1 H
b1 k
b1 :"
1"
#648
b100100000001100000000000000001 ?
b100100000001100000000000000001 {
b100100000001100000000000000001 N"
b100100000001100000000000000001 T"
b10100 Y
b10100 z
b10100 O"
b10100 Q"
b10100 R"
#650
1C
b0 H
b0 k
b0 :"
b110 @
b110 ="
b110 a"
b11000 X
b11000 |
b11000 0"
b100100000001100000000000000001 >
b100100000001100000000000000001 }
b100100000001100000000000000001 ~
b100100000001100000000000000001 1"
b101 P
b101 v
b101 E"
b100 &
b100 -"
b100 W"
b11 %
b11 Z"
b11 b"
0"
#700
0C
b101 '
b101 )"
b101 L"
b10000 V
b10000 5"
b10000 M"
b11000 P"
b110 Q
b110 m
b110 8"
b110 _"
b1 H
b1 k
b1 :"
1"
#748
b100100000001110000000000000001 ?
b100100000001110000000000000001 {
b100100000001110000000000000001 N"
b100100000001110000000000000001 T"
b11000 Y
b11000 z
b11000 O"
b11000 Q"
b11000 R"
#750
1C
b0 H
b0 k
b0 :"
b111 @
b111 ="
b111 a"
b11100 X
b11100 |
b11100 0"
b100100000001110000000000000001 >
b100100000001110000000000000001 }
b100100000001110000000000000001 ~
b100100000001110000000000000001 1"
b100 %
b100 Z"
b100 b"
b101 &
b101 -"
b101 W"
b110 P
b110 v
b110 E"
0"
#800
0C
b10100 V
b10100 5"
b10100 M"
b110 '
b110 )"
b110 L"
b11100 P"
b111 Q
b111 m
b111 8"
b111 _"
b1 H
b1 k
b1 :"
1"
#848
b10000010001000000100000 ?
b10000010001000000100000 {
b10000010001000000100000 N"
b10000010001000000100000 T"
b11100 Y
b11100 z
b11100 O"
b11100 Q"
b11100 R"
#850
b1 J
b1 l
b1 9"
1C
b10 *
b10 3"
b10 e"
b1 +
b1 4"
b1 d"
0]
14
b10 H
b10 k
b10 :"
b1 @
b1 ="
b1 a"
b10 A
b10 <"
b10 `"
b100000 X
b100000 |
b100000 0"
b10000010001000000100000 >
b10000010001000000100000 }
b10000010001000000100000 ~
b10000010001000000100000 1"
b111 P
b111 v
b111 E"
b110 &
b110 -"
b110 W"
b101 %
b101 Z"
b101 b"
0"
#900
0D
b111 '
b111 )"
b111 L"
b11111111111111111011111110011100 V
b11111111111111111011111110011100 5"
b11111111111111111011111110011100 M"
b100000 P"
1>"
0F
b10 U
b10 o
b10 6"
b10 ^"
b1 Q
b1 m
b1 8"
b1 _"
b10 S
b10 n
b10 7"
b1000000100000 -
b1000000100000 j
b1000000100000 ?"
1"
#948
b11000010001100000011000 ?
b11000010001100000011000 {
b11000010001100000011000 N"
b11000010001100000011000 T"
b100000 Y
b100000 z
b100000 O"
b100000 Q"
b100000 R"
#950
1D
b1111 c
b1111 q
b1111 !"
b11 A
b11 <"
b11 `"
b100100 X
b100100 |
b100100 0"
b11000010001100000011000 >
b11000010001100000011000 }
b11000010001100000011000 ~
b11000010001100000011000 1"
b110 %
b110 Z"
b110 b"
b111 &
b111 -"
b111 W"
b1000000100000 ,
b1000000100000 y
b1000000100000 F"
b10 G
b10 x
b10 H"
b1 I
b1 w
b1 G"
b10 T
b10 t
b10 C"
b1 P
b1 v
b1 E"
b10 R
b10 u
b10 D"
13
0\
0"
#1000
0D
b11 [
b11 h
b11 ("
b11 B"
b11111111111111111001111111000000 V
b11111111111111111001111111000000 5"
b11111111111111111001111111000000 M"
b10 '
b10 )"
b10 L"
b10 N
b10 d
b10 J"
b10 )
b10 *"
b10 K"
b1 O
b1 e
b1 I"
b100100 P"
b11 U
b11 o
b11 6"
b11 ^"
b11 S
b11 n
b11 7"
b1100000011000 -
b1100000011000 j
b1100000011000 ?"
1"
#1048
b1001000010000000100101 ?
b1001000010000000100101 {
b1001000010000000100101 N"
b1001000010000000100101 T"
b100100 Y
b100100 z
b100100 O"
b100100 Q"
b100100 R"
#1050
b1 H
b1 k
b1 :"
b10 J
b10 l
b10 9"
1D
b1 *
b1 3"
b1 e"
b10 +
b10 4"
b10 d"
b1 c
b1 q
b1 !"
b100 @
b100 ="
b100 a"
b1 A
b1 <"
b1 `"
b10 [
b10 h
b10 ("
b10 B"
b101000 X
b101000 |
b101000 0"
b1001000010000000100101 >
b1001000010000000100101 }
b1001000010000000100101 ~
b1001000010000000100101 1"
b1100000011000 ,
b1100000011000 y
b1100000011000 F"
b11 T
b11 t
b11 C"
b11 R
b11 u
b11 D"
b1111 b
b1111 f
b1111 r
b1111 @"
b10 (
b10 $"
b10 ,"
b11 _
b11 +"
b11 U"
b11 ["
b10 &
b10 -"
b10 W"
b111 %
b111 Z"
b111 b"
0"
#1100
0C
b11 '
b11 )"
b11 L"
b11111111111111110111111110010000 V
b11111111111111110111111110010000 5"
b11111111111111110111111110010000 M"
b101000 P"
b100 U
b100 o
b100 6"
b100 ^"
b100 Q
b100 m
b100 8"
b100 _"
b1 S
b1 n
b1 7"
b10000000100101 -
b10000000100101 j
b10000000100101 ?"
1"
#1148
bx ?
bx {
bx N"
bx T"
b101000 Y
b101000 z
b101000 O"
b101000 Q"
b101000 R"
#1150
bx H
bx k
bx :"
bx J
bx l
bx 9"
xC
xD
bx *
bx 3"
bx e"
bx +
bx 4"
bx d"
bx @
bx ="
bx a"
bx A
bx <"
bx `"
b11 [
b11 h
b11 ("
b11 B"
b101100 X
b101100 |
b101100 0"
bx >
bx }
bx ~
bx 1"
b11 ^
b11 X"
b11 g"
b10 %
b10 Z"
b10 b"
b10 _
b10 +"
b10 U"
b10 ["
b11 &
b11 -"
b11 W"
b10000000100101 ,
b10000000100101 y
b10000000100101 F"
b1 G
b1 x
b1 H"
b10 I
b10 w
b10 G"
b100 T
b100 t
b100 C"
b100 P
b100 v
b100 E"
b1 R
b1 u
b1 D"
b1 b
b1 f
b1 r
b1 @"
0"
#1200
b11 .
b11 c"
b11 j"
bx V
bx 5"
bx M"
b100 '
b100 )"
b100 L"
b1 N
b1 d
b1 J"
b1 )
b1 *"
b1 K"
b10 O
b10 e
b10 I"
b101100 P"
x>"
xF
bx U
bx o
bx 6"
bx ^"
bx Q
bx m
bx 8"
bx _"
bx S
bx n
bx 7"
bx -
bx j
bx ?"
1"
#1248
b101100 Y
b101100 z
b101100 O"
b101100 Q"
b101100 R"
#1250
b110000 X
b110000 |
b110000 0"
bx ,
bx y
bx F"
bx G
bx x
bx H"
bx I
bx w
bx G"
bx T
bx t
bx C"
bx P
bx v
bx E"
bx R
bx u
bx D"
b1 (
b1 $"
b1 ,"
b11 _
b11 +"
b11 U"
b11 ["
b100 &
b100 -"
b100 W"
b10 ^
b10 X"
b10 g"
b11 %
b11 Z"
b11 b"
0"
#1300
bx [
bx h
bx ("
bx B"
b10 .
b10 c"
b10 j"
bx '
bx )"
bx L"
bx N
bx d
bx J"
bx )
bx *"
bx K"
bx O
bx e
bx I"
b110000 P"
1"
#1348
b110000 Y
b110000 z
b110000 O"
b110000 Q"
b110000 R"
#1350
b110100 X
b110100 |
b110100 0"
b11 ^
b11 X"
b11 g"
b100 %
b100 Z"
b100 b"
bx (
bx $"
bx ,"
bx _
bx +"
bx U"
bx ["
bx &
bx -"
bx W"
0"
#1400
b11 .
b11 c"
b11 j"
b110100 P"
1"
#1448
b110100 Y
b110100 z
b110100 O"
b110100 Q"
b110100 R"
#1450
b111000 X
b111000 |
b111000 0"
bx ^
bx X"
bx g"
bx %
bx Z"
bx b"
0"
#1500
bx .
bx c"
bx j"
b111000 P"
1"
#1548
b111000 Y
b111000 z
b111000 O"
b111000 Q"
b111000 R"
#1550
b111100 X
b111100 |
b111100 0"
0"
#1600
b111100 P"
1"
#1648
b111100 Y
b111100 z
b111100 O"
b111100 Q"
b111100 R"
#1650
b1000000 X
b1000000 |
b1000000 0"
0"
#1700
b1000000 P"
1"
#1748
b1000000 Y
b1000000 z
b1000000 O"
b1000000 Q"
b1000000 R"
#1750
b1000100 X
b1000100 |
b1000100 0"
0"
#1800
b1000100 P"
1"
#1848
b1000100 Y
b1000100 z
b1000100 O"
b1000100 Q"
b1000100 R"
#1850
b1001000 X
b1001000 |
b1001000 0"
0"
#1900
b1001000 P"
1"
#1948
b1001000 Y
b1001000 z
b1001000 O"
b1001000 Q"
b1001000 R"
#1950
b1001100 X
b1001100 |
b1001100 0"
0"
#2000
b1001100 P"
1"
#2048
b1001100 Y
b1001100 z
b1001100 O"
b1001100 Q"
b1001100 R"
#2050
b1010000 X
b1010000 |
b1010000 0"
0"
#2100
b1010000 P"
1"
#2148
b1010000 Y
b1010000 z
b1010000 O"
b1010000 Q"
b1010000 R"
#2150
b1010100 X
b1010100 |
b1010100 0"
0"
#2200
b1010100 P"
1"
#2248
b1010100 Y
b1010100 z
b1010100 O"
b1010100 Q"
b1010100 R"
#2250
b1011000 X
b1011000 |
b1011000 0"
0"
#2300
b1011000 P"
1"
#2348
b1011000 Y
b1011000 z
b1011000 O"
b1011000 Q"
b1011000 R"
#2350
b1011100 X
b1011100 |
b1011100 0"
0"
#2400
b1011100 P"
1"
#2448
b1011100 Y
b1011100 z
b1011100 O"
b1011100 Q"
b1011100 R"
#2450
b1100000 X
b1100000 |
b1100000 0"
0"
#2500
b1100000 P"
1"
#2548
b1100000 Y
b1100000 z
b1100000 O"
b1100000 Q"
b1100000 R"
#2550
b1100100 X
b1100100 |
b1100100 0"
0"
#2600
b1100100 P"
1"
#2648
b1100100 Y
b1100100 z
b1100100 O"
b1100100 Q"
b1100100 R"
#2650
b1101000 X
b1101000 |
b1101000 0"
0"
#2700
b1101000 P"
1"
#2748
b1101000 Y
b1101000 z
b1101000 O"
b1101000 Q"
b1101000 R"
#2750
b1101100 X
b1101100 |
b1101100 0"
0"
#2800
b1101100 P"
1"
#2848
b1101100 Y
b1101100 z
b1101100 O"
b1101100 Q"
b1101100 R"
#2850
b1110000 X
b1110000 |
b1110000 0"
0"
#2900
b1110000 P"
1"
#2948
b1110000 Y
b1110000 z
b1110000 O"
b1110000 Q"
b1110000 R"
#2950
b1110100 X
b1110100 |
b1110100 0"
0"
#3000
b1110100 P"
1"
#3048
b1110100 Y
b1110100 z
b1110100 O"
b1110100 Q"
b1110100 R"
#3050
b1111000 X
b1111000 |
b1111000 0"
0"
#3100
b1111000 P"
1"
#3148
b1111000 Y
b1111000 z
b1111000 O"
b1111000 Q"
b1111000 R"
#3150
b1111100 X
b1111100 |
b1111100 0"
0"
#3200
b1111100 P"
1"
#3248
b1111100 Y
b1111100 z
b1111100 O"
b1111100 Q"
b1111100 R"
#3250
b10000000 X
b10000000 |
b10000000 0"
0"
#3300
b10000000 P"
1"
#3348
b10000000 Y
b10000000 z
b10000000 O"
b10000000 Q"
b10000000 R"
#3350
b10000100 X
b10000100 |
b10000100 0"
0"
#3400
b10000100 P"
1"
#3448
b10000100 Y
b10000100 z
b10000100 O"
b10000100 Q"
b10000100 R"
#3450
b10001000 X
b10001000 |
b10001000 0"
0"
#3500
b10001000 P"
1"
#3548
b10001000 Y
b10001000 z
b10001000 O"
b10001000 Q"
b10001000 R"
#3550
b10001100 X
b10001100 |
b10001100 0"
0"
#3600
b10001100 P"
1"
#3648
b10001100 Y
b10001100 z
b10001100 O"
b10001100 Q"
b10001100 R"
#3650
b10010000 X
b10010000 |
b10010000 0"
0"
#3700
b10010000 P"
1"
#3748
b10010000 Y
b10010000 z
b10010000 O"
b10010000 Q"
b10010000 R"
#3750
b10010100 X
b10010100 |
b10010100 0"
0"
#3800
b10010100 P"
1"
#3848
b10010100 Y
b10010100 z
b10010100 O"
b10010100 Q"
b10010100 R"
#3850
b10011000 X
b10011000 |
b10011000 0"
0"
#3900
b10011000 P"
1"
#3948
b10011000 Y
b10011000 z
b10011000 O"
b10011000 Q"
b10011000 R"
#3950
b10011100 X
b10011100 |
b10011100 0"
0"
#4000
b10011100 P"
1"
#4048
b10011100 Y
b10011100 z
b10011100 O"
b10011100 Q"
b10011100 R"
#4050
b10100000 X
b10100000 |
b10100000 0"
0"
#4100
b10100000 P"
1"
#4148
b10100000 Y
b10100000 z
b10100000 O"
b10100000 Q"
b10100000 R"
#4150
b10100100 X
b10100100 |
b10100100 0"
0"
#4200
b10100100 P"
1"
#4248
b10100100 Y
b10100100 z
b10100100 O"
b10100100 Q"
b10100100 R"
#4250
b10101000 X
b10101000 |
b10101000 0"
0"
#4300
b10101000 P"
1"
#4348
b10101000 Y
b10101000 z
b10101000 O"
b10101000 Q"
b10101000 R"
#4350
b10101100 X
b10101100 |
b10101100 0"
0"
#4400
b10101100 P"
1"
#4448
b10101100 Y
b10101100 z
b10101100 O"
b10101100 Q"
b10101100 R"
#4450
b10110000 X
b10110000 |
b10110000 0"
0"
#4500
b10110000 P"
1"
#4548
b10110000 Y
b10110000 z
b10110000 O"
b10110000 Q"
b10110000 R"
#4550
b10110100 X
b10110100 |
b10110100 0"
0"
#4600
b10110100 P"
1"
#4648
b10110100 Y
b10110100 z
b10110100 O"
b10110100 Q"
b10110100 R"
#4650
b10111000 X
b10111000 |
b10111000 0"
0"
#4700
b10111000 P"
1"
#4748
b10111000 Y
b10111000 z
b10111000 O"
b10111000 Q"
b10111000 R"
#4750
b10111100 X
b10111100 |
b10111100 0"
0"
#4800
b10111100 P"
1"
#4848
b10111100 Y
b10111100 z
b10111100 O"
b10111100 Q"
b10111100 R"
#4850
b11000000 X
b11000000 |
b11000000 0"
0"
#4900
b11000000 P"
1"
#4948
b11000000 Y
b11000000 z
b11000000 O"
b11000000 Q"
b11000000 R"
#4950
b11000100 X
b11000100 |
b11000100 0"
0"
#5000
b11000100 P"
1"
#5048
b11000100 Y
b11000100 z
b11000100 O"
b11000100 Q"
b11000100 R"
#5050
b11001000 X
b11001000 |
b11001000 0"
0"
#5100
b11001000 P"
1"
#5148
b11001000 Y
b11001000 z
b11001000 O"
b11001000 Q"
b11001000 R"
